Convert a data frame, name, and description into a CoDEC table — as_codec_tbl • codec
…
    a codec_tbl object

    Examples

tibble::tibble(
  census_tract_id_2020 = cincy_census_geo("tract", "2020")$geoid,
  n_things = 823,
  year = 2024L
) |>
  as_codec_tbl(
    name = "n_things",
    "# Number of Things\n Number of things were averaged by census tract using the survey from 2024"
  )
#> # A tibble: 226 × 3
#>    census_tract_id_2020 n_things  year
#>    <chr>                   <dbl> <int>
#>  1 39061005200               823  2024
#>  2 39061026200               823  2024
#>  3 39061023901               823  2024
#>  4 39061023701               823  2024
#>  5 39061010500               823  2024
#>  6 39061020501               823  2024
#>  7 39061021900               823  2024
#>  8 39061021102               823  2024
#>  9 39061003700               823  2024
#> 10 39061003800               823  2024
#> # ℹ 216 more rows
…
