read CoDEC tabular data resource — codec_data • codec
…
geometry
return the merged geography object
alongside the output as a simple features object?

    Value

a tibble (codec tabular data resource), or simple features object when geometry = TRUE

    Examples

codec_data("hamilton_traffic")
#> reading data...
#> # A tibble: 222 × 16
#>    census_tract_id_2010 n_parcels n_parcels_near_traffic n_parcels_near_truck_…¹
#>    <chr>                    <int>                  <int>                   <int>
#>  1 39061024800               1324                   1163                       0
#>  2 39061024901                409                    153                       7
#>  3 39061025002               2791                   1632                    1404
#>  4 39061025104                724                    409                     359
#>  5 39061025102               2409                   1353                     300
#>  6 39061024902               2734                    750                       1
#>  7 39061025101               1654                    861                       0
#>  8 39061025001               2318                   1329                     440
#>  9 39061008601                639                    404                       0
#> 10 39061008800                710                    554                       0
#> # ℹ 212 more rows
#> # ℹ abbreviated name: ¹​n_parcels_near_truck_traffic
#> # ℹ 12 more variables: n_households <dbl>, n_households_near_traffic <dbl>,
#> #   n_households_near_truck_traffic <dbl>, median_parcel_traffic <dbl>,
#> #   median_household_traffic <dbl>, median_parcel_truck_traffic <dbl>,
#> #   median_household_truck_traffic <dbl>, frac_households_near_traffic <dbl>,
#> #   frac_parcels_near_traffic <dbl>, …
codec_data("hamilton_traffic", cincy::neigh_cchmc_2020)
#> reading data...
#> interpolating data to neighborhood_2020...
#> # A tibble: 81 × 16
#>    neighborhood_2020     median_parcel_traffic median_household_traffic
#>    <chr>                                 <dbl>                    <dbl>
#>  1 Amberley                                 0                        0 
#>  2 Anderson Twp.-Newtown              4076360.                 4082516.
#>  3 Avondale                          21079500.                29044446.
#>  4 Blue Ash                           5730866.                 5735005.
#>  5 Bond Hill                         14653209.                21747984.
#>  6 Camp Washington                  142134372                156719637 
#>  7 Carthage                          12436691                 14055610.
#>  8 Cheviot                            8205357.                 8476028.
#>  9 Clifton                           23392227.                29486212.
#> 10 Colerain Twp.                      5394207.                 5444374.
#> # ℹ 71 more rows
#> # ℹ 13 more variables: median_parcel_truck_traffic <dbl>,
#> #   median_household_truck_traffic <dbl>, frac_households_near_traffic <dbl>,
#> #   frac_parcels_near_traffic <dbl>, frac_households_near_truck_traffic <dbl>,
#> #   frac_parcels_near_truck_traffic <dbl>, year <dbl>, n_parcels <dbl>,
#> #   n_parcels_near_traffic <dbl>, n_parcels_near_truck_traffic <dbl>,
#> #   n_households <dbl>, n_households_near_traffic <dbl>, …
…
