Read a dpkg from the public CoDEC repository into R — get_codec_dpkg • codec
…
    Value

    a CoDEC data package (see dpkg::as_dpkg())

    Examples

get_codec_dpkg("drivetime-v0.2.2")
#> # [☰] drivetime-v0.2.2
#> # title: "Average Drive Time to Cincinnati Children's"
#> # homepage: https://geomarker.io/codec
#> # ℹ Use `dpkg_meta() to get all metadata
#> # A tibble: 222 × 3
#>    census_tract_id_2010 drive_time_avg  year
#>    <chr>                         <dbl> <dbl>
#>  1 39061000200                    18    2024
#>  2 39061000700                    13    2024
#>  3 39061000900                    12.9  2024
#>  4 39061001000                    12    2024
#>  5 39061001100                    12    2024
#>  6 39061001600                    12    2024
#>  7 39061001700                    12    2024
#>  8 39061001800                    12    2024
#>  9 39061001900                    12    2024
#> 10 39061002000                    12.4  2024
#> # ℹ 212 more rows
get_codec_dpkg("environmental_justice_index-v0.1.0")
#> # [☰] environmental_justice_index-v0.1.0
#> # title: "Environmental Justice Index"
#> # homepage: https://www.atsdr.cdc.gov/placeandhealth/eji/index.html
#> # ℹ Use `dpkg_meta() to get all metadata
#> # A tibble: 222 × 15
#>    census_tract_id_2010 prcnt_area_within_1mi_epa_npl_s…¹ prcnt_area_within_1m…²
#>    <chr>                                            <dbl>                  <dbl>
#>  1 39061000200                                          0                  100  
#>  2 39061000700                                          0                  100  
#>  3 39061000900                                          0                  100  
#>  4 39061001000                                          0                  100  
#>  5 39061001100                                          0                   90.5
#>  6 39061001600                                          0                  100  
#>  7 39061001700                                          0                  100  
#>  8 39061001800                                          0                  100  
#>  9 39061001900                                          0                   99.6
#> 10 39061002000                                          0                  100  
#> # ℹ 212 more rows
#> # ℹ abbreviated names: ¹​prcnt_area_within_1mi_epa_npl_site,
#> #   ²​prcnt_area_within_1mi_epa_tri_site
#> # ℹ 12 more variables: prcnt_area_within_1m_epa_tsd_site <dbl>,
#> #   prcnt_area_within_1mi_epa_rmp_site <dbl>,
#> #   prcnt_area_within_1mi_coal_mine <dbl>,
#> #   prcnt_area_within_1mi_lead_mine <dbl>, …
get_codec_dpkg("traffic-v0.1.2")
#> # [☰] traffic-v0.1.2
#> # title: "Average Annual Daily Truck and Total Traffic Counts"
#> # homepage: https://geomarker.io/codec
#> # ℹ Use `dpkg_meta() to get all metadata
#> # A tibble: 226 × 4
#>    census_tract_id_2020    aadt aadt_truck  year
#>    <chr>                  <int>      <int> <dbl>
#>  1 39061000200          2517492     275072  2020
#>  2 39061000700          1324921      26893  2020
#>  3 39061000900            93234          0  2020
#>  4 39061001000            30069          0  2020
#>  5 39061001100           972325      43600  2020
#>  6 39061001600           119094          0  2020
#>  7 39061001700                0          0  2020
#>  8 39061001800            20040          0  2020
#>  9 39061001900           648109      25401  2020
#> 10 39061002000           165142          0  2020
#> # ℹ 216 more rows
get_codec_dpkg("landcover-v0.1.0")
#> # [☰] landcover-v0.1.0
#> # title: "Landcover, Built Environment, and Greenness"
#> # homepage: https://github.com/geomarker-io/hamilton_landcover
#> # ℹ Use `dpkg_meta() to get all metadata
#> # A tibble: 222 × 6
#>    census_tract_id_2010 pct_green_2019 pct_impervious_2019 pct_treecanopy_2016
#>    <chr>                         <dbl>               <dbl>               <dbl>
#>  1 39061024800                      74                  27                  30
#>  2 39061024901                      76                  12                  24
#>  3 39061025002                      96                  12                  50
#>  4 39061025104                      86                  10                  52
#>  5 39061025102                      85                  28                  22
#>  6 39061024902                      94                  11                  49
#>  7 39061025101                      94                  13                  46
#>  8 39061025001                      85                  23                  35
#>  9 39061008601                      83                  20                  46
#> 10 39061008800                      84                  22                  40
#> # ℹ 212 more rows
#> # ℹ 2 more variables: enhanced_vegatation_index_2018 <dbl>, year <dbl>
get_codec_dpkg("hh_acs_measures-v0.0.1")
#> # [☰] hh_acs_measures-v0.0.1
#> # title: "Harmonized Historical American Community Survey Measures"
#> # homepage: https://github.com/geomarker-io/codec
#> # ℹ Use `dpkg_meta() to get all metadata
#> # A tibble: 226 × 17
#>    n_households census_tract_id_2020 n_households_children n_housing_units
#>           <dbl> <chr>                                <dbl>           <dbl>
#>  1          489 39061000200                            142             590
#>  2         1717 39061000700                             94            1904
#>  3          843 39061000900                            127            1058
#>  4         1036 39061001000                            114            1227
#>  5          550 39061001100                            111             605
#>  6          506 39061001600                             47             870
#>  7          662 39061001700                            168            1040
#>  8          678 39061001800                             63             871
#>  9         1255 39061001900                             80            1352
#> 10          930 39061002000                             32            1024
#> # ℹ 216 more rows
#> # ℹ 13 more variables: median_home_value <dbl>, prcnt_poverty <dbl>,
#> #   prcnt_recieved_public_assistance_income <dbl>,
#> #   prcnt_family_households_with_single_householder <dbl>,
#> #   prcnt_employment_among_civilian_workforce <dbl>,
#> #   prcnt_housing_units_occupied_by_renters <dbl>,
#> #   prcnt_median_rent_to_income_ratio_among_renters <dbl>, …
get_codec_dpkg("parcel-v0.1.0")
#> # [☰] parcel-v0.1.0
#> # title: "Parcel Characteristics"
#> # homepage: https://geomarker.io/codec
#> # ℹ Use `dpkg_meta() to get all metadata
#> # A tibble: 222 × 20
#>    census_tract_id_2010 fraction_apartment fraction_assisted_housing
#>    <chr>                             <dbl>                     <dbl>
#>  1 39061000200                        0.67                      0.33
#>  2 39061000700                        0.14                     NA   
#>  3 39061000900                        0.1                      NA   
#>  4 39061001000                        0.14                      0.01
#>  5 39061001100                        0.27                      0.01
#>  6 39061001600                        0.27                      0.04
#>  7 39061001700                        0.27                      0.02
#>  8 39061001800                        0.06                     NA   
#>  9 39061001900                        0.06                      0.01
#> 10 39061002000                        0.08                     NA   
#> # ℹ 212 more rows
#> # ℹ 17 more variables: fraction_condominium <dbl>,
#> #   fraction_single_family_dwelling <dbl>,
#> #   fraction_two_to_three_family_dwelling <dbl>, fraction_other <dbl>,
#> #   n_parcels <int>, n_violations <int>, violations_per_parcel <dbl>,
#> #   fraction_homestead <dbl>, market_total_value <dbl>, acreage <dbl>,
#> #   year_built <dbl>, n_total_rooms <dbl>, n_bedrooms <dbl>, …
…
